                          s                  s                               i                            o                  u                i                                 c                                                                                                        
                                                                                                                                                                                                                                                                                         
      e     ::       ;      t      :    d    s   n      e     e  t       {   f        i     ri       e    : m      a    s    d   a      a     a  B                ::            e ;      E    i    r   e      a     r                                                                    
                                                                                                                                                                                                                                                                                         
      i    ual  y  nd   d rin      xe c s    [   i e    u    lon )  p    t  ct E   c  e    ub   t   Pa  B f,  u  e er i e  t t   E e    e    e,     p    r  a    for  x  cis  { fn  q  s lf   t  r     l      b    { s       h    ot     a h                                             
                                                                                                                                                                                                                                                                                         
  pl  q  o  Exe c se {} i pl Pa ti lO d f   Ex r ise   fn p  tial_  p  s l   oth  : & el ) -> O t on<st : cmp:: rd ri g    sel . ath   rtia  cmp(&  h    a  )     imp   rd fo   xerci e   f   m  &se f  o      &   f) -   t  :    :Ord  in  {                                            
                                                                                                                                                                                                                                                                                         
       th. mp(&ot er.pa h  } }  mpl F om<( athBu , E   ciseS ate)>  or Exe cise { fn  rom( rom: ( athBu , Exerc seSta e))  > Sel  {    f { p th: fr m.   e  rcis _state  from 1  } }   impl Exer ise { pu     file name(& el )    &str                                                   
                                                                                                                                                                                                                                                                                                                   
          file_name().unwrap().to_str().unwrap() } pub fn folder_name(&sel ) -> &str { self.path .parent() .unwrap() .file_name() .unwrap() .to_str() .unw ap() } pub fn status(&self) -> Status { match (self.exercise_state.st rted,                                                   
                                                                                                                                                                                                                                                                
  lf.exercise_state.completed) { (_, Some(_)) => Status::Completed, (Some(_), None) => Status::Started, (_, _) => Status::NotStarted, } } } #[derive( Copy, Clone, Serialize, Deserialize, Hash, Default, Debug, PartialEq, Eq, PartialOrd, Ord,                
                                                                                                                                                                                                                                                                
     b struct ExerciseState { pub started: Option<DateTime<Utc>>, pub completed: Option<DateTime<Utc>>, } impl ExerciseState { pub fn start_exercise(&mut self) -> DateTime<Utc> { if let Some(date) = self.started { date } else { let now =                   
                                                                                                                                                                                                                                                                
   ::now(); self.started = Some(now); now } } pub fn complete_exercise(&mut self) -> DateTime<Utc> { if let Some(date) = self.completed { date } else { let now = Utc::now(); self.completed = Some(now); now } } } /// State of the exercises.                 
                                                                                                                                                                                                                                                                
     ive(Debug, Default, Clone)] pub struct State(pub BTreeSet<Exercise>); impl From<BTreeMap<PathBuf, ExerciseState>> for State { fn from(map: BTreeMap<PathBuf, ExerciseState>) -> Self { Self(map.into_iter().map(Exercise::from).collect())                 
                                                                                                                                                                                                                                                                
    impl State { /// Creates a new empty state. pub fn new() -> Self { Self::default() } /// Gets the exercise pub fn get(&self, path: impl AsRef<Path>) -> Option<&Exercise> { self.0.iter().find(|e| e.path == path.as_ref()) } /// Collects                  
                                                                                                                                                                                                                                                                
     xercises under `path` as their own default [`Exerc@seState`]. /// /// If the folder at `path` is empty, the state will be empty too. TODO Should error. pub fn scan(path: impl AsRef<Path>) -> Self { debug!("scanning {:?}",                              
                                                @@    @@@    @@                                                                                                                                                                                                 
   h.as_ref()); let exercises = list_exercises(p@@@) .@@@(|p@@@| (path, ExerciseState::default()).into()) .collect(); Self(exercises) } /// Tries to deserialize `exercises/state.toml###############/// /// # Errors /// /// Returns an                        
                                         .@=   @@@@# @@@@@ #@@@@   =@.                                                                                                            #######################                                                       
[`io::Error`] if reading the state file f@@@@ o@@@@@@@@@@@@@@@@@ c@@@@ins invalid toml. pub fn open(path: impl AsRef<Path>) -> io::Result<Self> { debug!("opening state file in#############################ap: BTreeMap<PathBuf, ExerciseState>                
                                         @@@@@@@@@@@@@@@@@@@@@@@@@@@@@                                                                                                        ################################                                                  
  toml::from_str(&read_to_string(pat@#as_@@@@@@@@@@@@@@@@@@@@@@@@@@@@@ Ok#@ap.into()) } /// Reads `exercises/state.toml` if it exists and scans the. /// `exercises` director##################################tate.toml`. This is the logical                  
                                    @@@@#@@@@@@@@@@@@@@@@@@@@@@@@@@@@@%@@@@                                                                                                 ####################################                                                
   ion in most cases. /// /// # Erro@@@@@@@@@@@@@@@@@@@@@@@@@@@@@@@@@@@@@@@]. pub fn scan_open_default(path: impl AsRef<Path>) -> io::Result<Self> { let path = path.as_ref####### mu###########################+ath) { Err(e) => { if e.kind()                 
                                    @@@@@@@@@@@@@@@@@@@@@@@@@@@@@@@@@@@@@@@                                                                                                #####      ###########################                                               
     rorKind::NotFound { debug!@"no @@@@@@@@@@@@@e @@@@@@@@@d"@@@@@@@@@@@@@ult(@ } else { return Err(e); } } Ok(state) => { debug!("previous state file found"); state } };#####other ###########################"{:?}", state); trace!("{:?}",                 
                              @@@@@@@@@@@@@@@@      @@@@@@@      @@@@@@@@@@@@@@@@                                                                                          #####       ##########################*                                              
        state.extend(other); Ok@@@@@@@@@@@@@ Saves th@@@@@te to `ex@@@@@@@@@@@@@.toml`. /// /// # Errors /// /// Returns an [`io::Error`] if creating or writing to the sta#####/ file ###########################> io::Result<()> { let mut                    
                               @@@@@@@@@@@            @@@            @@@@@@@@@@@                                                                                           #####      ############################                                              
   e = File::create("exercises/@@@@@@@@@+")?; let mut map = BTreeMap::=@@@@@@@@@ ex in & el .0 { map.insert(&ex.path, &ex.exercise_state); } debug!("writing state to exerc######tate#############################::to_string(&map)                             
                               @@@@@@@@                                 @@@@@@@@        +  +  +                                                                            #######################################                                              
    ect("state to be seria@@@@@@@@@@@@s_bytes(), )?; Ok(()) } /// Joins t@@@@@@@@@@@@-+ +++++++ +   xercises. Useful for adding /// missing exercises with: /// /// ``` ///#######################################rcise, ExerciseState}; /// let                
                          #@@@@@@@@@@                                     @@@@@@@@@@#+++++++++++++ +                                                                       #######################################                                              
  t left = State::new(); //@@@@@@@@@@@@@@@@@@@@@@@@@@@@@@@@@@@@@@@*week1/ex@@@@@@@@@++++++++++++++++  e: ExerciseState::default() }); /// left.extend(State::scan("exercise####################################### ``` /// # use chrono::Utc;                   
                           @@@@@@@@@@@@@@@@@@@@@@@@@@@@@@@@@@@@@@@@@@       @@@@@@@@++++++++++++++++ +                                                                     #######################################                                              
          otarustlings::sta%@@@@@@@@@@@@@@@@@@@@@@@@@@@@@@@@@@@@@@@@@@et sta=@@@@@@%++++++++++++++++++ started: Some(Utc::now()), /// ..ExerciseState::default() /// }; /// // left: /// // we####################tarted) /// // week2 /// //                   
                       .@@@@@@@@@@@@@@@@@@@@@@@@@@@@@@@@@@@@@@@@@@@@@@@      @@@@@@@@@@.++++++++++++++                                                                                        ####################                                              
       (default) /// //@@@@@@@@@@@@@@@@@@@@@@@@@@@@@@@@@@@@@@@@@@@@@@@@@t) ///@@@@@@@@@@++++++++++++++++ fault) /// /// let mut left = State::new(); /// left.0.insert(Exercise { path: "week1####################rc+++++++++: started.clone()                  
                       =@@@@@@@@@@@@@@@@@@@@@@@@@@@@@@@@@@@@@@@@@@@@@@@@@     @@@@@@@@@++++++++++++++++                                                        ###################################################  +++++++++++                                 
        left.0.insert(Ex@@@@@@@@@@@@@@@@@@@@@@@@@@@@@@@@@@@@@@@@@@@@@@@@@ate:#@@@@@@@@@++++++++++++++++++  /// /// let mut right = State::new(); /// right.0.#####################################################se+++++++++++++                               
                         @@@@@@@@@@@@@@@@@@@@@@@@@@@@@@@@@@@@@@@@@@@@@@@@    @@@@@@@@@++ @++++ @+++++++++                                                  #######################################################  ++++++++++++++                              
          ate::default() @@@@@@@@@%ght.@@@@@@@@@@@ercise { pa@@@@@@@@@@@@x1.%@@@@@@@@@+@ *@++@ *@++++++++ erciseState::default() }); /// /// // Extending ########################################################1 +++++++++++++++started) ///                 
                       @@@@@@@@@@@@    @@@@@@@@@@@            @@@@@@@@@@@.  @@@@@@@@@@@@@@++++@@++++++++++                                                ########################################################  +++++++++++++++                             
     ek2 /// // ex1.r@@@@@@@#@@@@@@/ //@@@@@@@@@@@// ex1.rs (d@@@@@@@@@@@ / @@@%@@#@@@@@@@+++++++++++++.+++ sert_eq!(left.0.iter().nth(0).unwrap().exerci#########################################################lf++++++++++++++++f) {                        
                     @@@@@@@@@@@@@@    @@@@@@@@@@@            @@@@@@@@@@@   @@@@@@@@@@@@@@++++-   ++++ . ++                                             ##########################################################  ++++++++++++++++                            
          self.0, &mut@@@@@@@@@@@// swa@@@@@@@@@@@inverts th=@@@@@@@@@@@@lf. +@@@@@@@@@@@.    .+. +++  - + eturns an iterator yielding [`Exercise`]s. pu##########################################################el+++++++++++++++++Returns an                 
                       #@@@@@@@        @@@@@@@@@@@@@@@@@@@@@@@@@@@@@@@@@      ++@@@@@@@%++-  -++++++  . +                                               #########################################################   +++++++++++++++++                           
          ielding a tupl@@@@@@older and@@@@@@@@@@@@@@@@@@@@@@@@@@@@@@@@oup_by_ + @@@@@@+   's  +++  )   + roupBy<&'_ str, btree_set::Iter<'_, Exercise>##########################################################.gr+++++++++++++++++er_name())                 
                       @@@@@@@         @@@@@@@@@@@@@@@@@@@@@@@@@@@@@@@          +@@@@@@@++   ++++      +                                               ##########################################################   +++++++++++++++++                           
  /// Returns the nex@@@@@@@@@e of the @@@@@@@@@@@@@@@@@@@@@@@@@@@@@@ is the las @@@@@@@@@ e -+= er. //  /// # Examples /// /// Get the next exercise `########################################################## //++++++++++++++++++c; /// #                  
                    @@@@@@@@@@         @@@@@@@@@@@@@@@@@@@@@@@@@@@@@@@           @@@@@@@@@@                                                           -#########################################################    ++++++++++++++++++                          
     tarustlings::sta@@@@@@@@@e, Exerci@@@@@@@@@@@@@@@@@@@@@@@@@@@@@@@-ted = Exer@@@@@@@@@ { /// started: Some(Utc::now()), /// ..ExerciseState::defau##########################################################rs"+++++++++++++++++++tate:                     
                       @@@@@@@         @@@@@@@@@@@@@@@@@@@@@@@@@@@@@@@@       .--@@@@@@@                                                              #########################################################    +++++++++++++++++++                          
         lone() }; /// l@@@@@@ = Exerci@@@@@@@@@@@"week1/e@@@@@@@@@@@@@@ exerc@@@@@@@@@: ExerciseState::default() }; /// let mut state = State::new();########################################################.clo++++++++++++++++++++                          
                       #@@@@@@         @@@@@@@@@@@          @@@@@@@@@@@@      @@@@@@@@@%                                                              ######################################################      ++++++++++++++++++++                          
assert_eq!(state.get_n@@@@@@@@cise_of_w@@@@@@@@@@@Some(&ex2)@@@@@@@@@@@@// ///@@@@@@@@@@@urn `None` if the exercise is last exercise of the week. /// ###################################################gs::stat+++++++++++++++++++++                          
                     @@@@@@@@@         @@@@@@@@@@@           @@@@@@@@@@@@     @@@@@@@@@@@@                                                            #########################                                +++++++++++++++++++++++                          
     iseState}; /// l@@@@@@@@@@ = Exerc@@@@@@@@@@@/// started@@@@@@@@@@@@@ow(@@@@@@@@@@@@@rciseState::default() /// }; /// /// let w1ex1 = Exercise { #######################to(), exercise_state: started.cl+++++++++++++++++++++++++Exercise {                
                       @@@@@@@@@@@@@@@@@@@@@@@@@@@@@@@@@     @@@@@@@@@@@@@@@@@@@@@@@@@@@                                                              ######################       +++++++++++++++++++++++++++++++++++++++++++++++++++                          
       week2/ex1.rs".into@@@@@@@@@@@@@@@@@@@@@@@@@@@@@@@te::d@@@@@@@@@@@@@@@@@@@@@@@@@tate = State::new(); /// state.0.insert(w1ex1.clone()); /// stat#####################e());++++++++++++++++++++++++++++++++++++++++++++++++++++++1ex1),                    
                         @@@@@@@@@@@@@@@@@@@@@@@@@@@@@@@      @@@@@@@@@@@@@@@@@@@@@@@@                                                                ####################    ++++++++++++++++++++++++++++++++++++++++++++++++++++++++                          
   e); /// ``` pub fn ge@@@@@@@@@@@@@@@@@@@@@@@@@@@@@@@@xercis@@@@@@@@@@@@@@@@@@@@@@@@@Exercise> { let mut exercises = self.0.iter(); exercises.find(|################### // +++++++++++++++++++++++++++++++++++++++++++++++++++++++++                          
                       =@@@@@@@@@@@@@@@@@@@@@@@@@@@@@@@@      @@@@@@@@@@@@@@@@@@@@@@@@@=                                                              ###################   ++++++++++++++++++++++++++++++++++++++++++++++++++++++++++                          
          xercise = exe@@@@@@@@@@@@@@@@@@@@@@@@@@@@@@@@@ the n-@@@@@@@@@@@@@@@@@@@@@@@@@ same folder if not_last_exercise.folder_name() == exercise.fo###################not++++++++++++++++++++++++++++++++++++++++++++++++++++++++++lf,                       
                       .@@@@@@@@@@@@@@@@@@@@@@@@@@@@@@@@       @@@@@@@@@@@@@@@@@@@@@@@@:                                                               #################   +++++++++++++++++++++++++++++++++++++++++++++++++++++++++++                          
        : &Exercise) -> &Ex%@@@@@@@@@@@@@@@@@@@@@@@@@@@@self.0.i@@@@@@@@@@@@@@@@@@@%d(|&x| x == exercise); exercises .next() .unwrap_or_else(|| self.0.#################rap++++++++++++++++++++++++++++++++++++++++++++++++++++++++++&Exercise {                
                           @@@@@@@@                                         @@@@@@@@                                                                   #################   ++++++++++++++++++++++++++++++++++++++++++++++++++++++++++                           
     u     rcises = self.0.@@@@@@@@@v(); *xercises.find(|&x| x == exe*cise)@@@@@@@@@es .next() .unwrap_or_else(|| self.0.iter().last().unwrap()) } pub #################cis++++++++++++++++++++++++++++++++++++++++++++++++++++++++++ut                         
                          #@@@@@@@@@@@@@@@@:                       :@@@@@@@@@@@@@@@@#                                                                   ################   +++++++++++++++++++++++++++++++++++++++++++++++++++++++++                            
   rcises = self.0.iter();@@@@@@@@@@@@@@@@@@tor until `exercise` ex@@@@@@@@@@@@@@@@@@x == exercise); // Walk the iterator until the week/folder_name is ################ses+++++++++++++++++++++++++++++++++++++++++++++++++++++++++ub fn                       
                               @@@@@@@@@@@@@                       @@@@@@@@@@@@@                                                                         ###############   ++++++++++++++++++++++++++++++++++++++++++++++++++++++++                             
       ek_exercise(&self, exerc@@@@@@@@@@@@@e) -> Option<&Exercise>@@@@@@@@@@@@@ercises = self.0.iter().rev(); // Walk the iterator until `exercise` exer############### x ++++++++++++++++++++++++++++++++++++++++++++++++++++++++_name is                     
                               @@@@@@@@@@@@@                       @@@@@@@@@@@@@                                                                          ##############   +++++++++++++++++++++++++++++++++++++++++++++++++++++++                              
          exercises.find(|&x| x@@@@@@@@@@@@@) != exercise.folder_na@@@@@@@@@@@@@n exercise_index(&self, exercise: &Exercise) -> usize { let (index, _) = se############# .e++++++++++++++++++++++++++++++++++++++++++++++++++++++ercise to be in                
                              @@@@@@@@@@@@@@@@                   @@@@@@@@@@@@@@@@                                                                           ############   ++++++++++++++++++++++++++++++++++++++++++++++++++++.                                
  e state"); index } pub fn fir@t_un@@@@@@@@@@@@@f) -> Option<@@@@@@@@@@@@@self@0 .iter() .find(|x| matches!(x.status(), Status::NotStarted | Status::Started########### st++++++++++++++++++++++++++++++++++++++++++++++++++ert!(                              
                                    @@@@@@@@@@@@@@@@@@@@@@@@@@@@@@@@@@@@@@@                                                                                     ########   +++++++++++++++++++                                                                  
     0.remove(exercise), // remove r@@@@@@@@@@@@@@@@@@@@@@@@@@@@@@@@@@@@@@@did not contain the exercise" ); let mut exercise = exercise.clone(); exercise.exercise_state.st+++++++++++++++++++f.0.insert(exercise); } pub fn                                    
                                    @@@@%@@@@@@@@@@@@@@@@@@@@@@@@@@@@@%@@@@                                                                                                +++++++++++++++++++                                                                  
   plete_exercise(&mut self, exercis@# &E@@@@@@@@@@@@@@@@@@@@@@@@@@@@@mov#@exercise), // remove returns true if the item existed "state did not contain the exercise" ); le+++++++++++++++++++++++++++++++++++++++                                              
                                         @@@@@@@@@@@@@@@@@@@@@@@@@@@@@                                                                                                     +++++++++++++++++++++++++++++++++++++++                                              
     td::{any::Any, io::stdout, marker::P@@@@om@@@@@@@@@@@@@@@@@ s@@@@:mpsc::Receiver}; use crossterm::{ cursor, event::{Event, KeyCode, KeyEvent}, execute, style::{Color,+++++++++++++++++++++++++++++++++++++++, terminal::{enable_raw_mode,                 
                                         .@+   @@@@% @@@@@ #@@@@   =@:                                                                                                     +++++++++++++++++++++++++++++++++++++++                                              
   ar, ClearType}, ExecutableCommand, }; use std@@@mt:@@@bug@@@se tracing::debug; use crate::{ exercise::{cargo_test, compile, run, CompileError, RunError}, menu::draw_men+++++++++++++++++++++++++++++++++++++++lt r_ ar o, filter_rs}, (e) }                 
                                                @@    @@@    @@                                                                                                            ++++++++++++++++++++++++++++    +++++++  +  +  +                                     
     ge, }; #[derive(Debug)] pub struct TesterStateData@{ selected_exercise: Exercise, state: State, // TODO rename } #[derive(Debug)] pub struct InMenu; #[derive(Debug)] +++++++++++++++++++++++++++; #[de+++++++ +++++++ + t uct Terminating;                
                                                                                                                                                                           +++++++++++++++++++++++++++       +++++++++++++++++ +                                
   epr(C)] pub struct TesterState<T: Debug> { state: TesterStateData, marker: PhantomData<T>, } impl<T: Debug> Debug for TesterState<T> { fn fmt(&self, f: &mut std::fmt::F+++++++++++++++++++++++++++Result +++++++++++++++++++                                
                                                                                                                                                                           +++++++++++++++++++++++++++      ++++++++++++++++++++ +                              
f.debug_struct(&format!("TesterState<{}>", std::any::type_name::<T>())) .field("state", &self.state) .field("marker", &self.marker) .finish() } } pub trait StateMachine: D+++++++++++++++++++++++++++-f: Bo++++++++++++++++++++++ ->                           
                                                                                                                                                                            ++++++++++++++++++++++++++++  ++++++++++++++++++++++++                              
 nyhow::Result<Box<dyn StateMachine>>; fn as_any(&self) -> &dyn Any; } impl TesterState<InMenu> { fn handle_keyevent( mut self: Box<Self>, key: Event, ) -> (anyhow::Result<B+++++++++++++++++++++++++++++++++++++++++++++++++++++++ yEvent {                   
                                                                                                                                                                              +++++++++++++++++++++++++++++++++++++++++++++++++++++                             
   e: KeyCode::Down, .. }) |  ve t::Key(KeyEvent { code: KeyCode::Char('j'), .. }) => { self.state.selected_exercise = self .state .state .next_exercise(&self.state.selected_e++++++++++++++++++++++++++++++++++++++++++++++++++++++ ::Draw),                  
                          +  +  +                                                                                                                                                +++++++++++++++++++++++++++++++++++ @++++ @+++++++++                           
     ) } Event::Key(K  -+ +++++++ +   eyCode::Esc, .. }) | Event::Key(KeyEvent { code: KeyCode::Backspace, .. }) | Event::Key(KeyEvent { code: KeyCode::Left, .. }) | Event::Key(Ke++++++++++++++++++++++++++++++++@ *@++@ *@++++++++ ould break                
                     - +++++++++++++ +                                                                                                                                                  +++++++++++++    +++++++++++@@++++@@++++++++++                          
        t loop (sel  +++++++++++++++++  age::Terminate), true) } Event::Key(KeyEvent { code: KeyCode::Up, .. }) | Event::Key(KeyEvent { code: KeyCode::Char('k'), .. }) => { self.state.selected_exerci +++.+++++++++++++++++++++++.+++                         
                   + +++++++++++++++++ +                                                                                                                                                                +++...++++   -++++-   ++++ . ++                         
   ev_exercise(&se +++++++++++++++++++++ ise.clone()) .clone(); (self.handle_message(Message::Draw), false) } Event::Key(KeyEvent { code: KeyCode::PageDown, .. }) | Event::Key(KeyEvent { code: KeyCode ++ . ++++ .+.    .+. +++  - + xercise)                 
                   +++++++++++++++++++++                                                                                                                                                                  ++ . +++++++-  -++++++  . +                           
    lf .state .s +++++++++++++++++++++++++ elf.state.selected_exercise) { self.state.selected_exercise = exercise.clone() } (self.handle_message(Message::Draw), false) } Event::Key(KeyEvent { code: KeyC +  :  +++   ..  +++      +                           
                  +++++++++++++++++++++++                                                                                                                                                                   +     ++++   ++++      +                            
  ent::Key(KeyE +++++++++++++++++++++++++++ , .. }) => { if let Some(exercise) = self .state .state .prev_week_exercise(&self.state.selected_exercise) { self.state.selected_exercise = exercise.clone() } ( elf.h ++- _ -+= ge(Mes age::Draw),                 
                ++++++++++ @++++ @+++++++++                                                                                                                                                                                                                     
         Event: +++++++++@ *@++@ *@++++++++ ::Enter, .. }) | Event::Key(KeyEvent { code: KeyCode::Right, .. }) | Event::Key(KeyEvent { code: KeyCode::Char(' '), .. }) => (self.handle_message(Message::TestExercise), false), _ =>                             
               +++++++++++@@++++@@++++++++++                                                                                                                                                                                                                    
      handle_ +++.+++++++++++++++++++++++.+++  } } impl StateMachine for TesterState<InMenu> { fn handle_message(mut self: Box<Self>, msg: Message) -> anyhow::Result<Box<dyn StateMachine>> { match msg { Message::SelectExercise(e) => {                      
              +++...++++   -++++-   ++++ . ++                                                                                                                                                                                                                   
        te.sel ++ . ++++ .+.    .+. +++  - + Message::TestExercise => { // SAFETY: TesterState<WatchingExercise> has the same size, // layout and alignment as TesterState<InMenu> due to repr(C) let watching = unsafe {                                       
                ++ . +++++++-  -++++++  . +                                                                                                                                                                                                                     
          raw(Bo +  n  +++   el  +++  mu  + sterState<WatchingExercise>) }; // TODO not sure it makes sense to use TestExercise watching.handle_message(Message::TestExercise) } Message::Notify(_) => Ok(self), // Ignore changes                              
                  +     ++++   ++++      +                                                                                                                                                                                                                      
     ge::KeyEvent( ey, t ++- a -+= => { l t (sölf, should_terminate) = self.handle_keyevent(key); terminator.send(should_terminate)?; sölf } Message::Draw => { draw_menu( &mut stdout(), self.state.state.0.clone(), self.state .state                         
                                         @                                                                                                                                                                                                                      
         _index(&self.state.selected_e @%%%   + )?; Ok(self) } Message::ExitExercise => { panic!("cannot exit exercise in menu") } Message::Terminate => { debug!("terminating tester"); // SAFETY: TesterState<InMenu> has the same size, //                   
                                      +%*+*#@%%%                                                                                                                                                                                                                
           alignment as TesterState<T %++++%%%%% due to repr(C) Ok(unsafe { std::mem::transmute::<_, Box<TesterState<Terminating>>>(self) }) } } } fn as_any(&self) -> &dyn Any { self } } impl TesterState<WatchingExercise> { fn                              
                                     @+====%%%%%%                                                                                                                                                                                                               
  ndle_keyevent(mut self: Box<Self>, %+=++@%%%%%@ > anyhow::Result<Box<dyn StateMachine>> { match key { Event::Key(KeyEvent { code: KeyCode::Esc, .. }) | Event::Key(KeyEvent { code: KeyCode::Backspace, .. }) | Event::Key(KeyEvent { code:                   
                                    -*=++=%%%%%%@                                                                                                                                                                                                               
     de::Left, .. }) | Event::Key(K %+*+=*%%%%%%@  KeyCode::Char('q'), .. }) => self .handle_message(Message::ExitExercise)? .handle_message(Message::Draw), Event::Key(KeyEvent { code: KeyCode::Enter, .. }) => { if let Some(next) = self                    
                                    %=**+@%%#@%%%                                                                                                                                                                                                               
         tate .get_next_exercise_of *++=*%%@%@%%# te.selected_exercise) { self.state.selected_exercise = next.clone(); self.handle_message(Message::TestExercise) } else { if let Some(next_week) = self .state .state                                          
                                   .++**+%%%*=#%                                                                                                                                                        @                                                       
.next_week_exercise(&self.state.se ++***#%%@@%#% ) { self.state.selected_exercise = next_week.clone(); } self.handle_message(Message::ExitExercise)? .handle_message(Message::Draw) } } _ => Ok(self) @%%%   + pl StateMachine for                              
                                   #*#+*%%%@@*#%                                                                                                                                                     +%*+*#@%%%                                                 
     rState<WatchingExercise> { fn +*++#@%%%%+#= (mut self: Box<Self>, msg: Message) -> anyhow::Result<Box<dyn StateMachine>> { match msg { // SAFETY: no idea if it works Message::ExitExercise =>  %++++%%%%%  TesterState<InMenu> has the                    
                                   .#**#@%%%%+%                                                                                                                                                     @+====%%%%%%                                                
       ze, // layout and alignment  %#%#@%%%%%% e<WatchingExercise> due to repr(C) let inmenu = unsafe { Box::from_raw(Box::into_raw(self) as *mut TesterState<InMenu>) }; Ok(inmenu) } Message::Ke %+=++@%%%%%@ rminator) => {                                 
                                    %@%#%%%%%#                                                                                                                                                     -*=++=%%%%%%@                                                
   minator.send(false)? -*-==.   d -#%%|.@%%+# ey) } Message::TestExercise => { execute!( stdout(), Clear(ClearType::All), cursor::Hide, cursor::MoveTo(0, 0), SetForegroundColor(Color::Blue), Pr %+*+=*%%%%%%@ _string()), // Reset to default                
                        **#%%**#+  +#  | +@@+%                                                                                                                                                     %=**+@%%#@%%%                                                
          etColor, Prin ++***********  |    + _string()), )?; self.state .state .start_exercise(&self.state.selected_exercise); self.state.state.save()?; let exercise_path = Path::new("exercises *++=*%%@%@%%# tate.selected_exercise.path);                  
                        ++*************++   %                                                                                                                                                     .++**+%%%*=#%                                                 
        o_toml_path = e +=**** ********+***##   toml"); let ok_output = if cargo_toml_path.exists() { match cargo_test(cargo_toml_path) { Ok(output) => output, Err(RunError::OutputError(output) ++***#%%@@%#% join stderr and stdout for                      
                       #+-****     %***+******#-                                                                                                                                                  #*#+*%%%@@*#%                                                 
     _     println!(" --+%****        .+**********#+   \r\n")); println!("{}", output.stdout.replace('\n', "\r\n")); return Ok(self); } Err(e) => { panic!("{e:?}"); } } } else { match compile(e +*++#@%%%%+#=  Ok(tempfile) => match                          
                     #**+##+*/         |  -********#*--                                                                                                                                           .#**#@%%%%+%                                                  
   (tempfile.into_tem =%*%#%:          |      #******-+ rr(RunError::OutputError(output)) => { println!("{}", output.stdout.replace('\n', "\r\n")); return Ok(self); } Err(e) => { panic!("{e:?}") %#%#@%%%%%% mpileError::OutputError(output))                 
                      *@*%*%****=-     |         #*=#*.                                                                                                                                            %@%#%%%%%#                                                   
      rintln!("{}", ou #*%*%%#*.  =--. %-#        *=#* ); return Ok(self); } Err(e) => { println!("{e:?}"); return Ok(self); } } }; execute!( stdout(), Print(ok_output.stdout.replace -*-==.   \ -#%%|.@%%+# groundColor(Color::Green),                        
                        *%*. ***=@#   ##=*+      .*=**:                                                                                                                                **#%%**#+  +#  | +@@+%                                                   
        r\n[+] ".to_str *.@@*#= +%@#.%##%%%%-    .*+**   # e! Press Q to return to menu or ENTER to continue\r\n".to_string() ), )?; self.state .state .complete_exercise(&self.state. ++***********  |    + f.state.state.save()?; Ok(self) }                  
                        *.****--##:. %%%%%+% *:. =*++*  *#                                                                                                                             ++*************++   %                                                    
      e::Notify(changed * *****###  .%%%%@%%%+  *+#*+# ++= nged", changed_path); if (filter_rs(&changed_path) || filter_cargo( changed_path .parent() .expect("changed_path to have a  +=**** ********+***##                                                    
                        * ***%####   %%%%*#+.#:*#%%%+#+++:                                                                                                                            #+-****     %***+******#-                                                 
     ed_path.starts_wit * ****##%#    %%%#* + - %#%%*#+++. ) { self.handle_message(Message::TestExercise) } else { Ok(self) } } Message::Terminate => { debug!("terminating tester") --+%****        .+**********#+   xercise> has the same                     
                        * ****#%%#    %@%@%=   #: #%*#+++                                                                                                                           #**+##+*/         |  -********#*--                                          
 ize, // layout and ali * ****%#%#    %%@%%+     **@*#+++ due to repr(C) let terminating = unsafe { Box::from_raw(Box::into_raw(self) as *mut TesterState<Terminating>) }; Ok(termin =%*%#%:          |      #******-+ ), } } fn as_any(&self)                  
                        * *****%#     #%#%.      **@*#+++                                                                                                                            *@*%*%****=-     |         #*=#*.                                          
        Any { self } }  + ****##  =  :           *#*+#+++ erminating> { fn handle_message(self: Box<Self>, _msg: Message) -> anyhow::Result<Box<dyn StateMachine>> { panic!("state ma #*%*%%#*.  =--. %-#        *=#* y(&self) -> &dyn Any {                    
                        = ****# #*-  -%          *%*+#+++                                                                                                                              *%*. ***=@#   ##=*+      .*=**:                                          
          mpl TesterSta - #*** **** =*%.         *%**%+++ ::Result<Box<Self>> { let state = State::scan_open_default("exercises")?; let selected_exercise = state .first_unfinished()  *.@@*#= +%@#.%##%%%%-    .*+** ) # xt().expect("state to                 
                        -*--##*+*+****% %##+*    *%*#%+++                                                                                                                              *.****--##:. %%%%%+% *:. =*++*  *#                                       
  ntain exercises")) .c **=-%**+-*******+%%%%*%  *#*#%+++ esterStateData { state, selected_exercise, }, marker: PhantomData, })) } pub fn start_exercise(self) -> TesterState<Watching * *****###  .%%%%@%%%+  *+#*+# ++= ercise> { state:                      
                        %%%%***=+*+*+*+******%%%#***#%++@                                                                                                                              * ***%####   %%%%*#+.#:*#%%%+#+++:                                       
     state, marker: Pha %%#*+*++++++++++*+*+++**+*+*#%+%% tchingExercise> { pub fn back_to_menu(self) -> TesterState<InMenu> { TesterState { state: self.state, marker: PhantomData, } * ****##%#    %%%#* + - %#%%*#+++. lings state machine.                  
                         #***++=++++++++*+*+******+*#%%@%                                                                                                                              * ****#%%#    %@%@%=   #: #%*#+++                                        
   eives [`Message`]s f *+****+++++++++++++*+*****+#*%@@% ter`] and [`crate::utils::transmit_input`]. /// /// The `sender` is used send self-dispatched messages, so has to be connect * ****%#%#    %%@%%+     **@*#+++  Panics /// /// - If                   
                       #****+*+++++++++++++****+.*+%*@%@%                                                                                                                              * *****%#     #%#%.      **@*#+++                                        
     utex of `state`  ###*****++*+++++++*+*****%*-=%*@@@ / The [`anyhow::Error`] may contain an [`std::io::Error`], a /// [`std::sync::mpsc::SendError`]. pub fn handle_test(receiver: + ****##  =  :           *#*+#+++ ult<()> { let mut ts:                  
                       %#*****+***+*+*+++***+*%*-+=#*@@                                                                                                                                = ****# #*-  -%          *%*+#+++                                        
   <dyn StateMachine> =  .=#*+**+-****+******%**#-+=#@ _mode()?; ts = ts.handle_message(Message::Draw)?; loop { ts = ts.handle_message(receiver.recv()?)?; if ts .as_any() .downcast_r - #*** **** =*%.         *%**%+++ s_some() {                             
                       -:=*% -%+***+*+******%   @%%%@                                                                                                                                  -*--##*+*+****% %##+*    *%*#%+++                                        
     t().execute(curso @%#      #%+*+*+ ***% k( %@%%# [cfg(test)] mod tests { use super::*; #[test] fn terminates_in_menu() { let ts = TesterState::new().unwrap(); let ts = ts.handle **=-%**+-*******+%%%%*%  *#*#%+++ (); assert!(ts                         
                       ---#*. -*#   %+#*=*%       %:                                                                                                                                   %%%%***=+*+*+*+******%%%#***#%++@                                        
   _any() .downcast_re --#---%-##  t  .%+% nating>  ) .is_some()); } #[test] fn test_exercise() { let ts = TesterState::new().unwrap(); assert_eq!( ts.state.selected_exercise.path.to %%#*+*++++++++++*+*+++**+*+*#%+%%  let ts =                              
                      --*%--%---%*: .. *                                                                                                                                                #***++=++++++++*+*+******+*#%%@%                                        
ts.handle_message(Mes --====%--#---%@#@ .unwrap(); assert!(ts .as_any() .downcast_ref::<TesterState<WatchingExercise>>() .is_some()); } #[test] fn terminates_watching() { let ts = Te *+****+++++++++++++*+*****+#*%@@%                                        
                     **-+=====---@*#@#@                                                                                                                                               #****+*+++++++++++++****+.*+%*@%@%                                        
 se crate::state::Ex =+%##++==-#-=#%%@% :ColoredString; use colored::Colorize; use core::fmt; use crossterm::cursor; use crossterm::execute; use crossterm::terminal::Clear; use cro ###*****++*+++++++*+*****%*-=%*@@@ rtools::Itertools; use                  
                        %**+=--#%-# .#                                                                                                                                                %#*****+***+*+*+++***+*%*-+=#*@@                                          
   y_static::lazy_static   @#*-#+#*   lections::BTreeSet; use std::fmt::Display; use std::io::Write; // TODO add windows compatible characters lazy_static! { static ref CHEVRON: Colo  .=#*+**+-****+******%**#-+=#@  ref STARTED: InMenu");                   
                              @--#                                                                                                                                                    -:=*% -%+***+*+******%   @%%%@                                            
     edString = "×".yellow();     ic ref COMPLETED: ColoredString = "✓".green(); } #[derive(Copy, Clone, Debug, PartialEq, Eq)] pub enum Status { NotStarted, Started, Completed, } i @%#      #%+*+*+ ***% {  %@%%# &self, f: &mut                             
                                                                                                                                                                                      ---#*. -*#   %+#*=*%       %:                                             
        matter<'_>) -> fmt::Result { use Status::{Completed, NotStarted, Started}; match *self { NotStarted => Ok(()), Started => write!(f, "{}", *STARTED), Completed => write!(f, " --#---%-##  E  .%+%  } pub    draw_menu( output: &mut impl                
                                                                                                                                                                                     --*%--%---%*: .. *                                                         
   te, items: BTreeSet<Exercise>, sel: usize, ) -> anyhow::Result<()> { execute!( output, Clear(ClearType::All), cursor::Hide, cursor::MoveTo(0, 0) )?; let selected_exercise = item --====%--#---%@#@ xpect("sel to be in range"); let grouped                 
                                                                                                                                                                                    **-+=====---@*#@#@                                                          
    ems.iter().group_by(|t| t.folder_name()); // loop over each folder for (folder, exercises_in_folder) in &grouped { let exercises_in_folder: Vec<_> = exercises_in_folder.collec =+%##++==-#-=#%%@% uses: Vec<_> =                                           
                                                                                                                                                                                       %**+=--#%-# .#                                                           
  ercises_in_folder.iter().map(|e| e.status()).collect(); let  on ai s_not_started = folder_statuses.contains(&Status::NotStarted); let contains_started = folder_statuses.contains(&St   @#*-#+#*   ; let contains_completed =                                 
                                                              +  +  +                                                                                                                        @--#                                                               
         atuses.contains(&Status::Completed); let folder_  -+ +++++++ + ( ontains_not_started, contains_started, contains_completed) { // Folder contains no started or completed exercises (    , false, false) => Status::NotStarted, //                      
                                                         - +++++++++++++ +                                                                                                                                                                                      
       contains only completed exercises (false, false,  +++++++++++++++++  pleted, (false, false, false) => panic!("no exercises in folder"), (_, _, _) => Status::Started, }; write!(output, " {}/ {}\n\r", folder, folder_status)?; // if the                
                                                       + +++++++++++++++++ +                                                                                                                                                                                    
        the selected week if selected_exercise.folder_ +++++++++++++++++++++ oop over all exercises in the week for exercise in exercises_in_folder { if exercise == selected_exercise { write!( output, " {} {} {}\n\r", *CHEVRON,                             
                                                       +++++++++++++++++++++                                                                                                                                                                                    
          :RUSTC_COLOR_ARGS; use rust_embed::RustEmb +++++++++++++++++++++++++ y, Formatter}, fs::{create_dir_all, File}, io::{self, Write}, path::{Path, PathBuf}, process, process::Command, }; use tempfile::NamedTempFile; use                              
                                                      +++++++++++++++++++++++                                                                                                                                                                                   
     rror::Error; use tracing::{debug, trace}; ///  +++++++++++++++++++++++++++  tderr strings of some executed process. #[derive(Debug, Clone)] pub struct Output { pub stdout: String, pub stderr: String, } impl Output { pub fn                             
                                                    ++++++++++ @++++ @+++++++++ ඞ                                                                                                                                                                               
         output(output: &process::Output) -> Self { +++++++++@ *@++@ *@++++++++  tf8_lossy(&output.stdout).to_string(), stderr: String::from_utf8_lossy(&output.stderr).to_string(), } } @ impl Display for Output { fn fmt(&self, formatter:                   
                                                   +++++++++++@@++++@@++++++++++                                                                                                  @@    @@@    @@                                                               
          tter) -> Result<(), std::fmt::Error> {  +++.+++++++++++++++++++++++.+++ ut) } } /// Represents different errors from [`compile`] #[derive(Error, Debug)] pub enum Compil@@@ror@@@///@@@mpilation failed due to an IO error                            
                                                  +++...++++   -++++-   ++++ . ++                                                                                          .@=   @@@@# @@@@@ #@@@@   =@.                                                        
  error("compilation IO error")] IOError(#[from] i ++ . ++++ .+.    .+. +++  - + r which contains compiler output #[error("compilation failed")] OutputError(Output), } ///@@@@re@@@@@@@@@@@@@@@@@rr@@@@from [`run`] #[derive(Error, Debug)] pub                
                                                    ++ . +++++++-  -++++++  . +                                                                                            @@@@@@@@@@@@@@@@@@@@@@@@@@@@@                                                        
     RunError { /// Execution failed due to an IO er +  #  +++   ex  +++   I  + ror")] IOError(#[from] io::Error), /// Execution failed at runtime. For example the te@#s m@@@@@@@@@@@@@@@@@@@@@@@@@@@@@lic#@ion may have crashed                               
                                                      +     ++++   ++++      +                                                                                        @@@@#@@@@@@@@@@@@@@@@@@@@@@@@@@@@@%@@@@                                                   
         execution failed")] OutputError(Output), } ###############-+= st sou ce code file with `rustc` and returns a /// [`NamedTempFile`] guarding the resultant bin@@@@@@@@@@@@@@@@@@@@@@@@@@@@@@@@@@@@@@@ path contains invalid UTF-8. ///                  
                                                #######################                                                                                               @@@@@@@@@@@@@@@@@@@@@@@@@@@@@@@@@@@@@@@                                                   
/// # Errors /// /// If `rustc` exited with n############################# to be a /// compilation IO error [`CompileError::IOError`] which is then returned. pub@fn c@@@@@@@@@@@@@im@@@@@@@@@Pa@@@@@@@@@@@@@t<Na@edTempFile, CompileError> {                   
                                            ################################                                                                                    @@@@@@@@@@@@@@@@      @@@@@@@      @@@@@@@@@@@@@@@@                                             
     emp_file = NamedTempFile::new()?; debu##################################let cmd_output = Command::new("rustc") .args(&[ "--test", "--edition", "2021", path.@@@@@@@@@@@@@tr().unwr@@@@@ "-o",   @@@@@@@@@@@@@                                              
                                          ####################################                                                                                   @@@@@@@@@@@            @@@            @@@@@@@@@@@                                              
       le.path().as_os_str().to_str().unw#######]) ###########################+put()?; if cmd_output.status.success() { Ok(temp_file) } else { Err(CompileError::@@@@@@@@@+r(Output::from_cmd_output( &c=@@@@@@@@@ ))) } } /// Tests the cargo                  
                                         #####      ###########################                                                                                  @@@@@@@@                                 @@@@@@@@                                              
   ject at `manifest_path`. /// /// # Pan#####// ///###########################contains invalid UTF-8. /// /// # Errors /// /// If `cargo test` failed due t@@@@@@@@@@@@r a [`RunError::IOError`] is /// re@@@@@@@@@@@@he testing itself failed,                
                                         #####       ##########################*                                                                            #@@@@@@@@@@                                     @@@@@@@@@@#                                         
          or::OutputError`] is /// return#####ub fn c###########################pl AsRef<Path>) -> Result<Output, RunError> { let mut cmd = Command::new("car@@@@@@@@@@@@@@@@@@@@@@@@@@@@@@@@@@@@@@@*[ "test"@@@@@@@@@fest-path",                               
                                         #####      ############################                                                                             @@@@@@@@@@@@@@@@@@@@@@@@@@@@@@@@@@@@@@@@@@       @@@@@@@@                                          
        _path.as_ref().to_str().unwrap(),###### "--#############################COLOR_ARGS); trace!("cargo test: {:?}", cmd); // TODO stream output let cmd_o%@@@@@@@@@@@@@@@@@@@@@@@@@@@@@@@@@@@@@@@@@@:from_=@@@@@@%ut(&cmd_output);                          
                                         #######################################                                                                         .@@@@@@@@@@@@@@@@@@@@@@@@@@@@@@@@@@@@@@@@@@@@@@@      @@@@@@@@@@.                                      
     !     go test output: {:?}", output)#######################################utput.status); if cmd_output.status.success() { Ok(output) } else { Err(R@@@@@@@@@@@@@@@@@@@@@@@@@@@@@@@@@@@@@@@@@@@@@@@@@e file@@@@@@@@@@# Errors /// /// If                   
                                         #######################################                                                                         =@@@@@@@@@@@@@@@@@@@@@@@@@@@@@@@@@@@@@@@@@@@@@@@@@     @@@@@@@@@+                                      
    execution failed due to an IO error a####################################### If the execution failed at runtime a /// [`RunError::OutputError`]. pub f@@@@@@@@@@@@@@@@@@@@@@@@@@@@@@@@@@@@@@@@@@@@@@@@@RunE#@@@@@@@@@bug!("running {:?}",                   
                                         #######################################                                                                           @@@@@@@@@@@@@@@@@@@@@@@@@@@@@@@@@@@@@@@@@@@@@@@@    @@@@@@@@@                                        
       _ref()); let cmd_output = Command::new(path.as_ref())####################") .args(RUSTC_COLOR_ARGS) .output()?; let output = Output::from_cmd_output@@@@@@@@@%ut);@@@@@@@@@@@put.status.@@@@@@@@@@@@Ok(%@@@@@@@@@else {                                  
                                                            ####################                                                                         @@@@@@@@@@@@    @@@@@@@@@@@            @@@@@@@@@@@.  @@@@@@@@@@@@                                      
          or::OutputError(output)) } } fn cargo_hack_toml(pa####################Bu+++++++++th.file_name().expect("file nam  t  b  valid") == "Cargo-hac@@@@@@@#@@@@@@.par@@@@@@@@@@@ct("path to @@@@@@@@@@@nt"@@@%@@#@@@@@@@new("Cargo.toml")) }                
                             ###################################################  +++++++++++                             +  +  +                      @@@@@@@@@@@@@@    @@@@@@@@@@@            @@@@@@@@@@@   @@@@@@@@@@@@@@                                    
  se { path } } /// Structu#####################################################se+++++++++++++r at compile time #[de  -+ +++++++ + ] #[folder = "exerci@@@@@@@@@@@lude =@@@@@@@@@@@l"] #[excl=@@@@@@@@@@@@get/*@@@@@@@@@@@truct Exercises; ///                 
                         #######################################################  ++++++++++++++                     - +++++++++++++ +                   #@@@@@@@        @@@@@@@@@@@@@@@@@@@@@@@@@@@@@@@@@        @@@@@@@%                                      
     alizes the `exercis########################################################st+++++++++++++++If new exercises a  +++++++++++++++++  ompt is shown. ///@@@@@@ Panics /@@@@@@@@@@@@@@@@@@@@@@@@@@@@@@@@n invalid @@@@@@ /// /// # Errors ///                  
                        ########################################################  +++++++++++++++                  + +++++++++++++++++ +                 @@@@@@@         @@@@@@@@@@@@@@@@@@@@@@@@@@@@@@@           @@@@@@@                                      
    An [`io::Error`] is#########################################################xe++++++++++++++++nit() -> io::Res +++++++++++++++++++++ or over the ex@@@@@@@@@les embed@@@@@@@@@@@@@@@@@@@@@@@@@@@@@@_files = Exe@@@@@@@@@ter(); let mut                      
                      ##########################################################  ++++++++++++++++                 +++++++++++++++++++++              @@@@@@@@@@         @@@@@@@@@@@@@@@@@@@@@@@@@@@@@@@           @@@@@@@@@@                                   
     xercises = Vec::n########################################################## i+++++++++++++++++ for exercise +++++++++++++++++++++++++ race!("embed@@@@@@@@@ {exercis@@@@@@@@@@@@@@@@@@@@@@@@@@@@@@@-          @@@@@@@@@                                    
                      #########################################################   +++++++++++++++++               +++++++++++++++++++++++                @@@@@@@         @@@@@@@@@@@@@@@@@@@@@@@@@@@@@@@@       .--@@@@@@@                                      
   th::new("exercises##########################################################ush+++++++++++++++++} } if !new_ +++++++++++++++++++++++++++  user before w@@@@@@ new exer@@@@@@@@@@@if true @@@@@@@@@@@@@@rmatio@@@@@@@@@er // Confirm::new() //                
                     ##########################################################   +++++++++++++++++             ++++++++++ @++++ @+++++++++              #@@@@@@         @@@@@@@@@@@          @@@@@@@@@@@@      @@@@@@@@@%                                      
     _prompt("New exe##########################################################rue++++++++++++++++++{ for exerc +++++++++@ *@++@ *@++++++++ et path = ca@@@@@@@@_toml(Pat@@@@@@@@@@@rcises").j@@@@@@@@@@@@_file.@@@@@@@@@@@                                     
                    -#########################################################    ++++++++++++++++++           +++++++++++@@++++@@++++++++++           @@@@@@@@@         @@@@@@@@@@@           @@@@@@@@@@@@     @@@@@@@@@@@@                                    
   ate_dir_all(path.##########################################################let+++++++++++++++++++es::get(e +++.+++++++++++++++++++++++.+++ xercise_f@@@@@@@@@@in Exerc@@@@@@@@@@@ data = std@@@@@@@@@@@@@tf8@@@@@@@@@@@@@ta).unwrap();                       
                    #########################################################    +++++++++++++++++++          +++...++++   -++++-   ++++ . ++            @@@@@@@@@@@@@@@@@@@@@@@@@@@@@@@@@     @@@@@@@@@@@@@@@@@@@@@@@@@@@                                      
debug!("writing to {######################################################## "Ne++++++++++++++++++++go_hack_to ++ . ++++ .+.    .+. +++  - + h to be valid @@@@@@@@@@@@@@@@@@@@@@@@@@@@@@@o new@@@@@@@@@@@@@@@@@@@@@@@@@rintln!("Run                            
                    ######################################################      ++++++++++++++++++++            ++ . +++++++-  -++++++  . +                @@@@@@@@@@@@@@@@@@@@@@@@@@@@@@@    - @@@@@@@@@@@@@@@@@@@@@@@@                                        
 otarustlings start`################################################### super::+++++++++++++++++++++_success() { +     +++   =   +++  ("  + s/fixture/comp@@@@@@@@@@@@@@@@@@@@@@@@@@@@@@@@t = ++@@@@@@@@@@@@@@@@@@@@@@@@@)).unwrap();                           
                    #########################                                +++++++++++++++++++++++              +     ++++   ++++      +               =@@@@@@@@@@@@@@@@@@@@@@@@@@@@@@@@  + ++@@@@@@@@@@@@@@@@@@@@@@@@@=                                      
    std::{ env::curr#######################athBuf}, sync::mpsc::{channel, R+++++++++++++++++++++++++r}, }; use cro sterm ++- n -+= ead, E ent, KeyCode, K@@@@@@@@@@@@@@@@@@@@@@@@@@@@@@@@@y:++++-@@@@@@@@@@@@@@@@@@@@@@@@@WalkDir; use                          
                    ######################       +++++++++++++++++++++++++++++++++++++++++++++++++++                                                     .@@@@@@@@@@@@@@@@@@@@@@@@@@@@@@@@  +++++@@@@@@@@@@@@@@@@@@@@@@@@:                                      
     ::Message; /// ##################### fn f++++++++++++++++++++++++++++++++++++++++++++++++++++++().extension().map_or(false, |ext| ext == "rs") } /// Fil%@@@@@@@@@@@@@@@@@@@@@@@@@@@@++++++++@@@@@@@@@@@@@@@@@@@%se are plain exercises pub                
                    ####################    ++++++++++++++++++++++++++++++++++++++++++++++++++++++++                                                         @@@@@@@@                      +++++++++++++++++++@@@@@@@@                                          
        r_plain(path################### -> +++++++++++++++++++++++++++++++++++++++++++++++++++++++++h.as_ref().ancestors().count() != 3 { return false; } fil@@@@@@@@@th) }*/// Filters c++++++++++++++*+++++@@@@@@@@@o exercises pub fn                        
                    ###################   ++++++++++++++++++++++++++++++++++++++++++++++++++++++++++                                                        #@@@@@@@@@@@@@@@@:           ++++++++++ @:@@@@@@@@@@@@@@@@#                                         
   ter_cargo(path: i################### bo++++++++++++++++++++++++++++++++++++++++++++++++++++++++++rgo.toml") .exists() } /// Worker (adapter) loop for map@@@@@@@@@@@@@@@@@@ent`]s from+++++++++@i*@@@@@@@@@@@@@@@@@@her`] to [`Message`]s and                
                     #################   +++++++++++++++++++++++++++++++++++++++++++++++++++++++++++                                                             @@@@@@@@@@@@@          +++++++++++@@@@@@@@@@@@@@@+++                                           
    ing them to `tx`.#################es ++++++++++++++++++++++++++++++++++++++++++++++++++++++++++in `exercises` changes /// - [`Message::Terminate`] when the [@@@@@@@@@@@@@mmendedWa+++.++++++++++@@@@@@@@@@@@@.+++nics /// /// - If                         
                     #################   ++++++++++++++++++++++++++++++++++++++++++++++++++++++++++                                                              @@@@@@@@@@@@@         +++...++++   -@@@@@@@@@@@@@. ++                                          
  current_dir`] fails################# //++++++++++++++++++++++++++++++++++++++++++++++++++++++++++fy::Error`] if that is received from the /// [`notify::Recomme@@@@@@@@@@@@@ pub fn no++f._++++t.+.@@@@@@@@@@@@@-D+bouncedEvent>, tx:                         
                      ################   +++++++++++++++++++++++++++++++++++++++++++++++++++++++++                                                              @@@@@@@@@@@@@@@@         ++ . +++++@@@@@@@@@@@@@@@@+                                            
         essage>) -> a################> {+++++++++++++++++++++++++++++++++++++++++++++++++++++++++ouncedEvent::Write(b)) => { let b = b .strip_prefix(current_dir@).un@@@@@@@@@@@@@exercis+s")) @@@@@@@@@@@@@ts t@ +e in subfolder")                            
                       ###############   ++++++++++++++++++++++++++++++++++++++++++++++++++++++++                                                                     @@@@@@@@@@@@@@@@@@@@@@@@@@@@@@@@@@@@@@@     +                                             
      th_buf(); let msg###############ify++++++++++++++++++++++++++++++++++++++++++++++++++++++++failed to send {:?}", msg))?; } Ok(DebouncedEvent::Error(e, _path)) =@@@@@@@@@@@@@@@@@@@@@@@@@@@@@@@@@@@@@@@()) } pub fn                                       
                        ##############   +++++++++++++++++++++++++++++++++++++++++++++++++++++++                                                                      @@@@%@@@@@@@@@@@@@@@@@@@@@@@@@@@@@%@@@@                                                   
        _input(message_se#############<Me++++++++++++++++++++++++++++++++++++++++++++++++++++++(); loop { match read()? { Event::Key(KeyEvent { code: KeyCode::Char('c@#, m@@@@@@@@@@@@@@@@@@@@@@@@@@@@@OL,#@) => { message_se de                               
                          ############   ++++++++++++++++++++++++++++++++++++++++++++++++++++.                                                                             @@@@@@@@@@@@@@@@@@@@@@@@@@@@@                      +  +  +                           
          age::Terminate) .########### an++++++++++++++++++++++++++++++++++++++++++++++++++nate"))?; break; } key => { if message_sender .send(Message::KeyEvent(key, tx.cl@@@@))@@@@@@@@@@@@@@@@@ak@@@@} } // The tester  -+ +++++++ + b eak                   
                              ########   +++++++++++++++++++                                                                                                               .@+   @@@@% @@@@@ #@@@@   =@:                 - +++++++++++++ +                      
     oop if rx.recv()? { break; } } Ok(()+++++++++++++++++++ises in the folder at `path`. Finds `.rs` files at /// exactly two folders of depth. Returns a list of paths **without@@@///@@@e `@@@h` as a prefix. /// //  +++++++++++++++++  ```                 
                                         +++++++++++++++++++                                                                                                                      @@    @@@    @@                      + +++++++++++++++++ +                    
          otarustlings::utils::list_exerc+++++++++++++++++++++++++++++++++++++++cises("exercises"); /// /// // Should find `exercises/week1/01-quiz.rs` first /// assert_eq!(exercises.ne@t(), Some("week1/01-quiz.rs" +++++++++++++++++++++ fn                 
                                         +++++++++++++++++++++++++++++++++++++++                                                                                                                                       +++++++++++++++++++++                    
          ::{bail, Context}; use clap::{P+++++++++++++++++++++++++++++++++++++++ RecommendedWatcher, RecursiveMode, Watcher}; use otarustlings::{ exercise::init, state::State, tester::handle_test, utils::{notify_ +++++++++++++++++++++++++ o                
                                         +++++++++++++++++++++++++++++++++++++++                                                                                                                                      +++++++++++++++++++++++                   
  ssage, }; use std::{ io::ErrorKind,  -++++++++++++++++++++++++++++++++++++++++::{self}, time::Duration, }; use tracing::debug; /// Otarustlings exercise platform. /// /// Otarustlings is used for learning hand +++++++++++++++++++++++++++                 
                                     - ++++++++++++++++++++++++++++++    +++++++                                                                                                                                    ++++++++++ @++++ @+++++++++                 
     // interesting challenges. To   +++++++++++++++++++++++++++++++art`. ++++++ew /// exercises are available, run `otarustlings init` to get them. More /// information over at https://docs.rs/otarustlings/late +++++++++@ *@++@ *@++++++++                 
                                   + +++++++++++++++++++++++++++++++       +++++                                                                                                                                   +++++++++++@@++++@@++++++++++                
         Parser, Debug)] #[clap(au +++++++++++++++++++++++++++++++++version+++++ Shows version automatically #[clap(propagate_version = true)] enum Opt { /// Writes the exercises to `exercises/` folder. Doesn' +++.+++++++++++++++++++++++.+++               
                                   +++++++++++++++++++++++++++++++++      ++++++                                                                                                                                  +++...++++   -++++-   ++++ . ++               
Init, /// Starts testing otarust +++++++++++++++++++++++++++++++++++-omman+++++ would use to interactively start doing /// otarustlings Start { /// Optional path to the exercise. If the path is just the week na ++ . ++++ .+.    .+. +++  - +                
                                  ++++++++++++++++++++++++++++++++++++  +++++++                                                                                                                                     ++ . +++++++-  -++++++  . +                 
     ise from that week is sele ++++++++++++++++++++++++++++++++++++++++++++++d from the path. #[structopt(parse(from_os_str))] path: Option<PathBuf>, }, /// Noninteractively tests exercises and exits Test { ///  +  o  +++    t  +++      +                 
                                ++++++++++ @++++++++++++++++++++++++++++++++++                                                                                                                                        +     ++++   ++++      +                  
       e. If the path is just t +++++++++@ *@+++++++++++++++++++++++++++++++se from that week is selected. The prefix /// `exercises/` can be omitted from the path. #[structopt(parse(from_os_str))] path: Option<Pat Buf>, ++-   -+=                          
                               +++++++++++@@+++++++++++++++++++++++++++++++                                                                                                                                                                                     
   lap(subcommand)] State(Sta +++.++++++++++++++++++++++++++++++++++++++otarustlings /// /// Usually not needed during normal operation #[derive(Subcommand, Debug)] enum StateOpt { /// Reset the state file. Does not delete or change any                    
                              +++...++++   -++++-   +++++++++++++++                                                                                                                                                                                             
          Reset, } fn main() - ++ . ++++ .+.    .+. +++  - + ll global collector configured based on RUST_LOG env var. tracing_subscriber::fmt::init(); match Opt::parse() { Opt::State(StateOpt::Reset) => { let state =                                       
                                ++ . +++++++-  -++++++  . +                                                                                                                                                                                                     
        can("exercises"); state. +  (  +++   tl  +++  te  + e has been reset to default"); } Opt::Init => init().unwrap(), Opt::Test { path } => { let (sender, receiver) = channel(); if let Some(path) = path { let exercise =                                
                                  +     ++++   ++++      +                                                                                                                                                                                                      
     :     _open_default("exercise ")? . ++- _ -+= ise(&p th) .ok_or_else(|| { anyhow::anyhow!("could not find an unfinished exercise {:?}", path) })? .clone(); // map_err is required because Message is not Sync                                             
                                                                                                                                                                                                                                                                
   der.send(Message::SelectExercise(exercise)).unwrap(); sender.send(Message::TestExercise).unwrap(); sender.send(Message::Terminate).unwrap(); } else { todo!("test all exercises"); } handle_test(&receiver)?; } Opt::Start { path } => { //                  
                                                                                                                                                                                                                                                                
      heck if initialized let (tx, rx) = channel(); let mut watcher = Reco mendedWatcher::new(tx, Duration::from_secs(1))?; match watcher.watch( exercises", RecursiveMode::Recursive) { Err(Error::Io(ioerror)) if io rror.kind() ==                                                    
                                                                                                                                                                                                                                                                                                                   
        d: NotFou d =>    ail!( `exer ises  fold r n   found  Run ` ta  st  ngs  nit` f rst."    _ => {} }; let  sende , r   iver) = chan el  ;    If  tart c mmand c ntain  a pa h if let S me(   h) =   th    et exe ci e =                                                            
                                                                                                                                                                                                                                                                                         
S ate :s a _ope _ efaul ( exerc se ")   m  ch_ x rci   &pat   .ok_  _    (   { a yhow : nyhow ( could no  f n     un i ish   exer  se {:  "    t   } ? .clo e ); // m p_err is re u r   be a se    sage    no                                                                            
                                                                                                                                                                                                                                                                                         
   d  .    (Me  a  ::S  e tEx r  s (e e c  e )   w a         er. e  (    a  :    tEx  c  e).  w ap( ;    et w t  _ a   e =    e    nde    s    r  l    );   r  d::  a n(m v  |  n t f  a a   r &    &      )       t i  u  h n  e =                                                      
                                                                                                                                                                                                                                                                                         
      :     n(            s i      t    n    )   a      e     e  i                ai              n      n    )    p   h      .     )  u                ("            t h      f    d        p      e                t       h    r p                                                    
                                                                                                                                                                                                                                                                                         
                          r                                   n                                 a                  i                f                                                                                                                                                    
                                                                                                                                                                                                                                                                
                                                                                                                                                                                                                                                                
                                                                                                                                                                                                                                                                
                                                                                                                                                                                                                                                                
                                                                                                                                                                                                                                                                
                                                                                                                                                                                                                                                                
                                                                                                                                                                                                                                                                
                                                                                                                                                                                                                                                                
                                                                                                                                                                                                                                                                
                                                                                                                                                                                                                                                                
                                                                                                                                                                                                                                                                
                                                                                                                                                                                                                                                                
                                                                                                                                                                                                                                                                
                                                                                                                                                                                                                                                                
                                                                                                                                                                                                                                                                
                                                                                                                                                                                                                                                                
                                                                                                                                                                                                                                                                
                                                                                                                                                                                                                                                                

